{
	"parent": "minecraft:block",
	"texture_size": [64, 64],
	"textures": {
		"particle": "aboui:block/grounded_item_captivator",
		"texture": "aboui:block/grounded_item_captivator"
	},
	"elements": [
		{
			"from": [7, 6, 7],
			"to": [9, 9, 9],
			"faces": {
				"north": {"uv": [6, 2, 6.5, 2.75], "texture": "#texture"},
				"south": {"uv": [6.5, 2, 6, 2.75], "texture": "#texture"},
				"up": {"uv": [6.5, 2, 6, 1.5], "texture": "#texture"},
				"down": {"uv": [6.5, 2.75, 6, 3.25], "texture": "#texture"}
			}
		},
		{
			"from": [9, 6, 7],
			"to": [12, 15, 9],
			"faces": {
				"north": {"uv": [5.25, 0.5, 6, 2.75], "texture": "#texture"},
				"east": {"uv": [7.25, 0, 7.75, 2.25], "texture": "#texture"},
				"south": {"uv": [6, 0.5, 5.25, 2.75], "texture": "#texture"},
				"west": {"uv": [7.75, 0, 8.25, 2.25], "texture": "#texture"},
				"up": {"uv": [6, 0.5, 5.25, 0], "texture": "#texture"},
				"down": {"uv": [6, 2.75, 5.25, 3.25], "texture": "#texture"}
			}
		},
		{
			"from": [4, 6, 7],
			"to": [7, 15, 9],
			"faces": {
				"north": {"uv": [6.5, 0.5, 7.25, 2.75], "texture": "#texture"},
				"east": {"uv": [8.25, 0, 8.75, 2.25], "texture": "#texture"},
				"south": {"uv": [7.25, 0.5, 6.5, 2.75], "texture": "#texture"},
				"west": {"uv": [8.75, 0, 9.25, 2.25], "texture": "#texture"},
				"up": {"uv": [7.25, 0.5, 6.5, 0], "texture": "#texture"},
				"down": {"uv": [7.25, 2.75, 6.5, 3.25], "texture": "#texture"}
			}
		},
		{
			"from": [0.5, 3, 6.5],
			"to": [3.5, 11, 9.5],
			"faces": {
				"north": {"uv": [4.5, 0.75, 5.25, 2.75], "texture": "#texture"},
				"east": {"uv": [4.5, 0.75, 5.25, 2.75], "texture": "#texture"},
				"south": {"uv": [4.5, 0.75, 5.25, 2.75], "texture": "#texture"},
				"west": {"uv": [4.5, 0.75, 5.25, 2.75], "texture": "#texture"},
				"up": {"uv": [5.25, 0.75, 4.5, 0], "texture": "#texture"},
				"down": {"uv": [5.25, 2.75, 4.5, 3.5], "texture": "#texture"}
			}
		},
		{
			"from": [1, 2, 7],
			"to": [3, 13, 9],
			"faces": {
				"north": {"uv": [4, 0.5, 4.5, 3.25], "texture": "#texture"},
				"east": {"uv": [4, 0.5, 4.5, 3.25], "texture": "#texture"},
				"south": {"uv": [4, 0.5, 4.5, 3.25], "texture": "#texture"},
				"west": {"uv": [4, 0.5, 4.5, 3.25], "texture": "#texture"},
				"up": {"uv": [4.5, 0.5, 4, 0], "texture": "#texture"},
				"down": {"uv": [4.5, 3.25, 4, 3.75], "texture": "#texture"}
			}
		},
		{
			"from": [0, 11.5, 7.5],
			"to": [4, 12.5, 8.5],
			"faces": {
				"north": {"uv": [8.5, 2.25, 7.5, 2.5], "texture": "#texture"},
				"east": {"uv": [7.25, 2.25, 7.5, 2.5], "texture": "#texture"},
				"south": {"uv": [7.5, 2.25, 8.5, 2.5], "texture": "#texture"},
				"west": {"uv": [8.5, 2.25, 8.75, 2.5], "texture": "#texture"},
				"up": {"uv": [8.5, 2.5, 7.5, 2.25], "texture": "#texture"},
				"down": {"uv": [8.5, 2.25, 7.5, 2.5], "texture": "#texture"}
			}
		},
		{
			"from": [9, 2, 4],
			"to": [14, 11, 4],
			"rotation": {"angle": 0, "axis": "y", "origin": [14, 6.5, 5]},
			"faces": {
				"north": {"uv": [10.5, 0, 9.25, 2.25], "texture": "#texture"},
				"south": {"uv": [9.25, 0, 10.5, 2.25], "texture": "#texture"},
				"west": {"uv": [7.75, 12.75, 7.75, 16], "texture": "#texture"}
			}
		},
		{
			"from": [2, 2, 4],
			"to": [7, 11, 4],
			"rotation": {"angle": 0, "axis": "y", "origin": [2, 6.5, 5]},
			"faces": {
				"north": {"uv": [9.25, 0, 10.5, 2.25], "texture": "#texture"},
				"south": {"uv": [10.5, 0, 9.25, 2.25], "texture": "#texture"}
			}
		},
		{
			"from": [14, 2, 4],
			"to": [14, 11, 7],
			"rotation": {"angle": 0, "axis": "y", "origin": [14, 6.5, 5]},
			"faces": {
				"east": {"uv": [11.25, 0, 10.5, 2.25], "texture": "#texture"},
				"west": {"uv": [10.5, 0, 11.25, 2.25], "texture": "#texture"}
			}
		},
		{
			"from": [9, 2, 12],
			"to": [14, 11, 12],
			"rotation": {"angle": 0, "axis": "y", "origin": [14, 6.5, 5]},
			"faces": {
				"north": {"uv": [10.5, 0, 9.25, 2.25], "texture": "#texture"},
				"south": {"uv": [9.25, 0, 10.5, 2.25], "texture": "#texture"},
				"west": {"uv": [7.75, 12.75, 7.75, 16], "texture": "#texture"}
			}
		},
		{
			"from": [14, 2, 9],
			"to": [14, 11, 12],
			"rotation": {"angle": 0, "axis": "y", "origin": [14, 6.5, 5]},
			"faces": {
				"east": {"uv": [10.5, 0, 11.25, 2.25], "texture": "#texture"},
				"west": {"uv": [11.25, 0, 10.5, 2.25], "texture": "#texture"}
			}
		},
		{
			"from": [2, 2, 12],
			"to": [7, 11, 12],
			"rotation": {"angle": 0, "axis": "y", "origin": [2, 6.5, 5]},
			"faces": {
				"north": {"uv": [9.25, 0, 10.5, 2.25], "texture": "#texture"},
				"south": {"uv": [10.5, 0, 9.25, 2.25], "texture": "#texture"}
			}
		},
		{
			"from": [2, 2, 9],
			"to": [2, 11, 12],
			"rotation": {"angle": 0, "axis": "y", "origin": [14, 6.5, 5]},
			"faces": {
				"east": {"uv": [10.5, 0, 11.25, 2.25], "texture": "#texture"},
				"west": {"uv": [11.25, 0, 10.5, 2.25], "texture": "#texture"}
			}
		},
		{
			"from": [2, 2, 4],
			"to": [2, 11, 7],
			"rotation": {"angle": 0, "axis": "y", "origin": [14, 6.5, 5]},
			"faces": {
				"east": {"uv": [11.25, 0, 10.5, 2.25], "texture": "#texture"},
				"west": {"uv": [10.5, 0, 11.25, 2.25], "texture": "#texture"}
			}
		},
		{
			"from": [12.5, 3, 6.5],
			"to": [15.5, 11, 9.5],
			"faces": {
				"north": {"uv": [4.5, 0.75, 5.25, 2.75], "texture": "#texture"},
				"east": {"uv": [4.5, 0.75, 5.25, 2.75], "texture": "#texture"},
				"south": {"uv": [4.5, 0.75, 5.25, 2.75], "texture": "#texture"},
				"west": {"uv": [4.5, 0.75, 5.25, 2.75], "texture": "#texture"},
				"up": {"uv": [5.25, 0.75, 4.5, 0], "texture": "#texture"},
				"down": {"uv": [5.25, 2.75, 4.5, 3.5], "texture": "#texture"}
			}
		},
		{
			"from": [13, 2, 7],
			"to": [15, 13, 9],
			"faces": {
				"north": {"uv": [4, 0.5, 4.5, 3.25], "texture": "#texture"},
				"east": {"uv": [4, 0.5, 4.5, 3.25], "texture": "#texture"},
				"south": {"uv": [4.5, 0.5, 4, 3.25], "texture": "#texture"},
				"west": {"uv": [4, 0.5, 4.5, 3.25], "texture": "#texture"},
				"up": {"uv": [4.5, 0.5, 4, 0], "texture": "#texture"},
				"down": {"uv": [4.5, 3.25, 4, 3.75], "texture": "#texture"}
			}
		},
		{
			"from": [12, 11.5, 7.5],
			"to": [16, 12.5, 8.5],
			"faces": {
				"north": {"uv": [7.5, 2.25, 8.5, 2.5], "texture": "#texture"},
				"east": {"uv": [7.25, 2.25, 7.5, 2.5], "texture": "#texture"},
				"south": {"uv": [7.5, 2.25, 8.5, 2.5], "texture": "#texture"},
				"west": {"uv": [8.5, 2.25, 8.75, 2.5], "texture": "#texture"},
				"up": {"uv": [8.5, 2.5, 7.5, 2.25], "texture": "#texture"},
				"down": {"uv": [8.5, 2.25, 7.5, 2.5], "texture": "#texture"}
			}
		},
		{
			"name": "base",
			"from": [0, 0, 0],
			"to": [16, 2, 16],
			"faces": {
				"north": {"uv": [0, 4, 4, 4.5], "texture": "#texture"},
				"east": {"uv": [0, 4, 4, 4.5], "texture": "#texture"},
				"south": {"uv": [0, 4, 4, 4.5], "texture": "#texture"},
				"west": {"uv": [0, 4, 4, 4.5], "texture": "#texture"},
				"up": {"uv": [4, 4, 0, 0], "texture": "#texture"},
				"down": {"uv": [4, 4.5, 0, 8.5], "texture": "#texture"}
			}
		}
	],
	"display": {},
	"groups": [
		{
			"name": "magnet",
			"origin": [0, 0, 0],
			"color": 0,
			"children": [0, 1, 2]
		},
		{
			"name": "pole_right",
			"origin": [0, 0, 0],
			"color": 0,
			"children": [3, 4, 5]
		},
		{
			"name": "wires",
			"origin": [14, 6.5, 5],
			"color": 0,
			"children": [6, 7, 8, 9, 10, 11, 12, 13]
		},
		{
			"name": "pole_left",
			"origin": [0, 0, 0],
			"color": 0,
			"children": [14, 15, 16]
		},
		17
	]
}