{
    "required": true,
    "minVersion": "0.8",
    "package": "azagwen.aboui.mixin",
    "compatibilityLevel": "JAVA_17",
    "mixins": [
        "AddItemFrameInterface$GlowItemFrameMixin",
        "AddItemFrameInterface$ItemFrameMixin",
        "AddPlayerInterface"
    ],
    "client": [
    ],
    "injectors": {
        "defaultRequire": 1
    }
}
