{
    "variants": {
        "enabled=false": {
            "model": "aboui:block/grounded_item_captivator"
        },
        "enabled=true": {
            "model": "aboui:block/grounded_item_captivator_on"
        }
    }
}